%YAML 1.1
%TAG !u! tag:unity3d.com,2011:
--- !u!1001 &2468977445022663228
PrefabInstance:
  m_ObjectHideFlags: 0
  serializedVersion: 2
  m_Modification:
    m_TransformParent: {fileID: 0}
    m_Modifications:
    - target: {fileID: 2543016442814558766, guid: 8225947d350dcd740a9a4a1235f4df44,
        type: 3}
      propertyPath: m_Name
      value: P_Player-Pun
      objectReference: {fileID: 0}
    - target: {fileID: 2543016442814558767, guid: 8225947d350dcd740a9a4a1235f4df44,
        type: 3}
      propertyPath: m_RootOrder
      value: 0
      objectReference: {fileID: 0}
    - target: {fileID: 2543016442814558767, guid: 8225947d350dcd740a9a4a1235f4df44,
        type: 3}
      propertyPath: m_LocalPosition.x
      value: 0
      objectReference: {fileID: 0}
    - target: {fileID: 2543016442814558767, guid: 8225947d350dcd740a9a4a1235f4df44,
        type: 3}
      propertyPath: m_LocalPosition.y
      value: 0
      objectReference: {fileID: 0}
    - target: {fileID: 2543016442814558767, guid: 8225947d350dcd740a9a4a1235f4df44,
        type: 3}
      propertyPath: m_LocalPosition.z
      value: 0
      objectReference: {fileID: 0}
    - target: {fileID: 2543016442814558767, guid: 8225947d350dcd740a9a4a1235f4df44,
        type: 3}
      propertyPath: m_LocalRotation.w
      value: 1
      objectReference: {fileID: 0}
    - target: {fileID: 2543016442814558767, guid: 8225947d350dcd740a9a4a1235f4df44,
        type: 3}
      propertyPath: m_LocalRotation.x
      value: 0
      objectReference: {fileID: 0}
    - target: {fileID: 2543016442814558767, guid: 8225947d350dcd740a9a4a1235f4df44,
        type: 3}
      propertyPath: m_LocalRotation.y
      value: 0
      objectReference: {fileID: 0}
    - target: {fileID: 2543016442814558767, guid: 8225947d350dcd740a9a4a1235f4df44,
        type: 3}
      propertyPath: m_LocalRotation.z
      value: 0
      objectReference: {fileID: 0}
    - target: {fileID: 2543016442814558767, guid: 8225947d350dcd740a9a4a1235f4df44,
        type: 3}
      propertyPath: m_LocalEulerAnglesHint.x
      value: 0
      objectReference: {fileID: 0}
    - target: {fileID: 2543016442814558767, guid: 8225947d350dcd740a9a4a1235f4df44,
        type: 3}
      propertyPath: m_LocalEulerAnglesHint.y
      value: 0
      objectReference: {fileID: 0}
    - target: {fileID: 2543016442814558767, guid: 8225947d350dcd740a9a4a1235f4df44,
        type: 3}
      propertyPath: m_LocalEulerAnglesHint.z
      value: 0
      objectReference: {fileID: 0}
    m_RemovedComponents: []
  m_SourcePrefab: {fileID: 100100000, guid: 8225947d350dcd740a9a4a1235f4df44, type: 3}
