%YAML 1.1
%TAG !u! tag:unity3d.com,2011:
--- !u!78 &1
TagManager:
  serializedVersion: 2
  tags:
  - Sword
  - Boss
  - Walkable
  - GreatSword
  - Enemy
  - Bullet
  - CinemachineTarget
  layers:
  - Default
  - TransparentFX
  - Ignore Raycast
  - 
  - Water
  - UI
  - 
  - 
  - 
  - Ground
  - 
  - Player
  - GreatSword
  - Scenary
  - Sword
  - IgnoreByPlayer
  - Post-Processing
  - 
  - 
  - 
  - 
  - 
  - 
  - 
  - 
  - 
  - 
  - 
  - 
  - 
  - 
  - 
  m_SortingLayers:
  - name: Default
    uniqueID: 0
    locked: 0
